\relax 
\providecommand\hyper@newdestlabel[2]{}
\providecommand\HyperFirstAtBeginDocument{\AtBeginDocument}
\HyperFirstAtBeginDocument{\ifx\hyper@anchor\@undefined
\global\let\oldcontentsline\contentsline
\gdef\contentsline#1#2#3#4{\oldcontentsline{#1}{#2}{#3}}
\global\let\oldnewlabel\newlabel
\gdef\newlabel#1#2{\newlabelxx{#1}#2}
\gdef\newlabelxx#1#2#3#4#5#6{\oldnewlabel{#1}{{#2}{#3}}}
\AtEndDocument{\ifx\hyper@anchor\@undefined
\let\contentsline\oldcontentsline
\let\newlabel\oldnewlabel
\fi}
\fi}
\global\let\hyper@last\relax 
\gdef\HyperFirstAtBeginDocument#1{#1}
\providecommand\HyField@AuxAddToFields[1]{}
\providecommand\HyField@AuxAddToCoFields[2]{}
\providecommand \oddpage@label [2]{}
\select@language{italian}
\@writefile{toc}{\select@language{italian}}
\@writefile{lof}{\select@language{italian}}
\@writefile{lot}{\select@language{italian}}
\select@language{italian}
\@writefile{toc}{\select@language{italian}}
\@writefile{lof}{\select@language{italian}}
\@writefile{lot}{\select@language{italian}}
\@writefile{toc}{\contentsline {section}{\numberline {1}Introduzione}{1}{section.1}}
\@writefile{toc}{\contentsline {section}{\numberline {2}La compressione JPEG}{1}{section.2}}
\@writefile{toc}{\contentsline {section}{\numberline {3}La libreria SciPy}{2}{section.3}}
\@writefile{toc}{\contentsline {section}{\numberline {4}Compressione JPEG in Python}{2}{section.4}}
\newlabel{sec:Python}{{4}{2}{Compressione JPEG in Python}{section.4}{}}
\@writefile{toc}{\contentsline {section}{\numberline {5}Immagini a confronto}{3}{section.5}}
\providecommand*\caption@xref[2]{\@setref\relax\@undefined{#1}}
\newlabel{fig:confronto}{{\caption@xref {fig:confronto}{ on input line 155}}{4}{Immagini a confronto}{figure.caption.1}{}}
\@writefile{lof}{\contentsline {figure}{\numberline {1}{\ignorespaces Confronto delle diverse immagini elaborate.\relax }}{4}{figure.caption.1}}
\@writefile{lof}{\contentsline {subfigure}{\numberline{(a)}{\ignorespaces {Originale}}}{4}{subfigure.1.1}}
\@writefile{lof}{\contentsline {subfigure}{\numberline{(b)}{\ignorespaces {Gimp con $Q=30$}}}{4}{subfigure.1.2}}
\@writefile{lof}{\contentsline {subfigure}{\numberline{(c)}{\ignorespaces {$Q=30$, $N=1$}}}{4}{subfigure.1.3}}
\@writefile{lof}{\contentsline {subfigure}{\numberline{(d)}{\ignorespaces {$Q=70$, $N=1$}}}{4}{subfigure.1.4}}
\@writefile{lof}{\contentsline {subfigure}{\numberline{(e)}{\ignorespaces {$Q=100$, $N=1$}}}{4}{subfigure.1.5}}
\@writefile{lof}{\contentsline {subfigure}{\numberline{(f)}{\ignorespaces {$Q=30$, $N=4$}}}{4}{subfigure.1.6}}
\@writefile{lof}{\contentsline {subfigure}{\numberline{(g)}{\ignorespaces {$Q=70$, $N=4$}}}{4}{subfigure.1.7}}
\@writefile{lof}{\contentsline {subfigure}{\numberline{(h)}{\ignorespaces {$Q=100$, $N=4$}}}{4}{subfigure.1.8}}
\@writefile{lof}{\contentsline {subfigure}{\numberline{(i)}{\ignorespaces {$Q=30$, $N=8$}}}{4}{subfigure.1.9}}
\@writefile{lof}{\contentsline {subfigure}{\numberline{(j)}{\ignorespaces {$Q=70$, $N=8$}}}{4}{subfigure.1.10}}
\@writefile{lof}{\contentsline {subfigure}{\numberline{(k)}{\ignorespaces {$Q=100$, $N=8$}}}{4}{subfigure.1.11}}
\@writefile{toc}{\contentsline {section}{\numberline {6}Considerazioni finali}{4}{section.6}}
